<?xml version="1.0" encoding="utf-8"?>
<!-- Generator: Adobe Illustrator 19.0.0, SVG Export Plug-In . SVG Version: 6.00 Build 0)  -->
<!DOCTYPE svg PUBLIC "-//W3C//DTD SVG 1.1//EN" "http://www.w3.org/Graphics/SVG/1.1/DTD/svg11.dtd">
<svg version="1.1" id="Layer_1" xmlns="http://www.w3.org/2000/svg" xmlns:xlink="http://www.w3.org/1999/xlink" x="0px" y="0px"
	 viewBox="0 0 409.6 409.6" enable-background="new 0 0 409.6 409.6" xml:space="preserve">
<g>
	<path d="M204.8,0C91.7,0,0,91.7,0,204.8c0,113.1,91.7,204.8,204.8,204.8s204.8-91.7,204.8-204.8C409.6,91.7,317.9,0,204.8,0
		L204.8,0z M204.8,377.6C109.4,377.6,32,300.2,32,204.8C32,109.4,109.4,32,204.8,32c95.4,0,172.8,77.4,172.8,172.8
		C377.6,300.2,300.2,377.6,204.8,377.6L204.8,377.6z M204.8,377.6"/>
	<path fill-rule="evenodd" clip-rule="evenodd" d="M253.4,173.4h-35.6v-26c0-8,8.2-9.8,12.1-9.8h23v-35.1l-26.4-0.1
		c-36,0-44.2,26.2-44.2,42.9v28.1h-26.1v36.2h26.1v97.6h35.5v-97.6h30.1L253.4,173.4z M253.4,173.4"/>
</g>
</svg>
