<?xml version="1.0" encoding="utf-8"?>
<!-- Generator: Adobe Illustrator 19.0.0, SVG Export Plug-In . SVG Version: 6.00 Build 0)  -->
<!DOCTYPE svg PUBLIC "-//W3C//DTD SVG 1.1//EN" "http://www.w3.org/Graphics/SVG/1.1/DTD/svg11.dtd">
<svg version="1.1" id="Layer_1" xmlns="http://www.w3.org/2000/svg" xmlns:xlink="http://www.w3.org/1999/xlink" x="0px" y="0px"
	 viewBox="0 0 409.6 409.6" enable-background="new 0 0 409.6 409.6" xml:space="preserve">
<g id="XMLID_8_">
	<path id="XMLID_9_" d="M204.8,0C91.7,0,0,91.7,0,204.8c0,113.1,91.7,204.8,204.8,204.8s204.8-91.7,204.8-204.8
		C409.6,91.7,317.9,0,204.8,0L204.8,0z M204.8,377.6C109.4,377.6,32,300.2,32,204.8C32,109.4,109.4,32,204.8,32
		c95.4,0,172.8,77.4,172.8,172.8C377.6,300.2,300.2,377.6,204.8,377.6L204.8,377.6z M204.8,377.6"/>
</g>
<g id="XMLID_2_">
	<path id="XMLID_3_" d="M312.1,227.9v79.3h-46v-74c0-18.6-6.6-31.3-23.3-31.3c-12.7,0-20.3,8.5-23.6,16.8c-1.2,3-1.5,7.1-1.5,11.2
		v77.3h-46c0,0,0.6-125.4,0-138.4h46v19.6c-0.1,0.2-0.2,0.3-0.3,0.5h0.3v-0.5c6.1-9.4,17-22.9,41.5-22.9
		C289.4,165.6,312.1,185.4,312.1,227.9L312.1,227.9z M123.5,102.1c-15.7,0-26,10.3-26,23.9c0,13.3,10,23.9,25.4,23.9h0.3
		c16,0,26-10.6,26-23.9C149,112.5,139.3,102.1,123.5,102.1L123.5,102.1z M100.2,307.2h46V168.8h-46V307.2z M100.2,307.2"/>
</g>
</svg>
